DATE,REGION,AVGRRP,PEAKRRP
2016-01,QLD,51.55,74.49
2016-02,QLD,121.31,204.45
2016-03,QLD,71.03,83.17
2016-04,QLD,66.49,75.56
2016-05,QLD,69.4,82.99
2016-06,QLD,87.53,102.48
2016-07,QLD,60.92,78.05
2016-08,QLD,47.96,56.61
2016-09,QLD,46.06,52.12
2016-10,QLD,53.73,58.49
2016-11,QLD,69.44,86.38
2016-12,QLD,67.3,82.47
2016-01,NSW,45.21,62.97
2016-02,NSW,38.81,45.53
2016-03,NSW,44.66,50.03
2016-04,NSW,66.03,74.29
2016-05,NSW,66.85,77.94
2016-06,NSW,97.69,116.92
2016-07,NSW,66.08,83.74
2016-08,NSW,48.1,56.26
2016-09,NSW,44.88,49.22
2016-10,NSW,55.23,57.83
2016-11,NSW,83.13,113.21
2016-12,NSW,51.53,59.97
